^C:\USERS\LEEHYUN\DESKTOP\멀티코어프로그래밍\실습\MULTITHREAD_TEST\MULTITHREAD_TEST\RELEASE\CAS사용.OBJ
C:\USERS\LEEHYUN\DESKTOP\멀티코어프로그래밍\실습\MULTITHREAD_TEST\RELEASE\MULTITHREAD_TEST.EXE
C:\USERS\LEEHYUN\DESKTOP\멀티코어프로그래밍\실습\MULTITHREAD_TEST\RELEASE\MULTITHREAD_TEST.PDB
