● CPU의 종류
- 모델명 : i5-7600
- 코어 개수 : 4개
- 클럭 : 3.50GHz


● 실행 속도
Number of threads = 1,  Exec Time = 1334ms
1, 4, 6, 7, 8, 9, 15, 19, 20, 23, 24, 26, 29, 31, 32, 33, 34, 35, 37, 39, 41,

Number of threads = 2,  Exec Time = 456ms
0, 1, 6, 7, 8, 12, 14, 18, 20, 21, 23, 24, 28, 29, 32, 34, 37, 39, 42, 45, 47,

Number of threads = 4,  Exec Time = 201ms
0, 1, 8, 12, 21, 24, 29, 32, 39, 42, 52, 53, 64, 74, 76, 77, 79, 80, 83, 88, 95,

Number of threads = 8,  Exec Time = 153ms
1, 11, 21, 24, 31, 39, 53, 72, 77, 80, 88, 101, 103, 106, 108, 109, 115, 129, 131, 141, 142,



● 실행 속도 비교표

	       Mutex	   LFUniversal

쓰레드 1개      1123ms           1334ms

쓰레드 2개       849ms           456ms

쓰레드 4개       823ms           201ms

쓰레드 8개       873ms           153ms