^C:\USERS\SKSPA\DESKTOP\멀티코어프로그래밍\실습\MULTICORE_STACK\MULTICORE_STACK\CSTACK.CPP
C:\USERS\SKSPA\DESKTOP\멀티코어프로그래밍\실습\MULTICORE_STACK\MULTICORE_STACK\X64\RELEASE\VC142.PDB
C:\USERS\SKSPA\DESKTOP\멀티코어프로그래밍\실습\MULTICORE_STACK\MULTICORE_STACK\X64\RELEASE\CSTACK.OBJ
^C:\USERS\SKSPA\DESKTOP\멀티코어프로그래밍\실습\MULTICORE_STACK\MULTICORE_STACK\LFSTACK.CPP
C:\USERS\SKSPA\DESKTOP\멀티코어프로그래밍\실습\MULTICORE_STACK\MULTICORE_STACK\X64\RELEASE\VC142.PDB
C:\USERS\SKSPA\DESKTOP\멀티코어프로그래밍\실습\MULTICORE_STACK\MULTICORE_STACK\X64\RELEASE\LFSTACK.OBJ
