^C:\USERS\SKSPA\DESKTOP\멀티코어프로그래밍\실습\MULTICORE_LIST\MULTICORE_LIST\X64\RELEASE\STL_LOCKFREE.OBJ
/OUT:"C:\USERS\SKSPA\DESKTOP\멀티코어프로그래밍\실습\MULTICORE_LIST\X64\RELEASE\MULTICORE_LIST.EXE" /INCREMENTAL:NO /NOLOGO KERNEL32.LIB USER32.LIB GDI32.LIB WINSPOOL.LIB COMDLG32.LIB ADVAPI32.LIB SHELL32.LIB OLE32.LIB OLEAUT32.LIB UUID.LIB ODBC32.LIB ODBCCP32.LIB /MANIFEST /MANIFESTUAC:"level='asInvoker' uiAccess='false'" /manifest:embed /DEBUG /PDB:"C:\USERS\SKSPA\DESKTOP\멀티코어프로그래밍\실습\MULTICORE_LIST\X64\RELEASE\MULTICORE_LIST.PDB" /SUBSYSTEM:CONSOLE /OPT:REF /OPT:ICF /LTCG:incremental /TLBID:1 /DYNAMICBASE /NXCOMPAT /IMPLIB:"C:\USERS\SKSPA\DESKTOP\멀티코어프로그래밍\실습\MULTICORE_LIST\X64\RELEASE\MULTICORE_LIST.LIB" /MACHINE:X64 X64\RELEASE\STL_LOCKFREE.OBJ
^C:\USERS\SKSPA\DESKTOP\멀티코어프로그래밍\실습\MULTICORE_LIST\MULTICORE_LIST\X64\RELEASE\STL_SEQOBJECT_SET.OBJ
/OUT:"C:\USERS\SKSPA\DESKTOP\멀티코어프로그래밍\실습\MULTICORE_LIST\X64\RELEASE\MULTICORE_LIST.EXE" /INCREMENTAL:NO /NOLOGO /LIBPATH:"C:\USERS\SKSPA\DESKTOP\VCPKG-MASTER\INSTALLED\X64-WINDOWS\LIB" /LIBPATH:"C:\USERS\SKSPA\DESKTOP\VCPKG-MASTER\INSTALLED\X64-WINDOWS\LIB\MANUAL-LINK" KERNEL32.LIB USER32.LIB GDI32.LIB WINSPOOL.LIB COMDLG32.LIB ADVAPI32.LIB SHELL32.LIB OLE32.LIB OLEAUT32.LIB UUID.LIB ODBC32.LIB ODBCCP32.LIB "C:\USERS\SKSPA\DESKTOP\VCPKG-MASTER\INSTALLED\X64-WINDOWS\LIB\*.LIB" /MANIFEST /MANIFESTUAC:"level='asInvoker' uiAccess='false'" /manifest:embed /DEBUG /PDB:"C:\USERS\SKSPA\DESKTOP\멀티코어프로그래밍\실습\MULTICORE_LIST\X64\RELEASE\MULTICORE_LIST.PDB" /SUBSYSTEM:CONSOLE /OPT:REF /OPT:ICF /LTCG:incremental /TLBID:1 /DYNAMICBASE /NXCOMPAT /IMPLIB:"C:\USERS\SKSPA\DESKTOP\멀티코어프로그래밍\실습\MULTICORE_LIST\X64\RELEASE\MULTICORE_LIST.LIB" /MACHINE:X64 X64\RELEASE\STL_SEQOBJECT_SET.OBJ
