^C:\USERS\C09\DESKTOP\STL_SET_1103\MULTICORE_LIST\MULTICORE_LIST\SKIPLIST.CPP
/c /Zi /nologo /W3 /WX- /diagnostics:classic /sdl /O2 /Oi /Oy- /GL /D WIN32 /D NDEBUG /D _CONSOLE /D _UNICODE /D UNICODE /Gm- /EHsc /MD /GS /Gy /fp:precise /permissive- /Zc:wchar_t /Zc:forScope /Zc:inline /Fo"RELEASE\\" /Fd"RELEASE\VC141.PDB" /Gd /TP /analyze- /FC C:\USERS\C09\DESKTOP\STL_SET_1103\MULTICORE_LIST\MULTICORE_LIST\SKIPLIST.CPP
^C:\USERS\SKSPA\DESKTOP\멀티코어프로그래밍\실습\MULTICORE_SKIPLIST\MULTICORE_LIST\MULTICORE_LIST\SKIPLIST.CPP
/c /I"C:\USERS\SKSPA\DESKTOP\VCPKG-MASTER\INSTALLED\X86-WINDOWS\INCLUDE" /Zi /nologo /W3 /WX- /diagnostics:column /sdl /O2 /Oi /Oy- /GL /D WIN32 /D NDEBUG /D _CONSOLE /D _UNICODE /D UNICODE /Gm- /EHsc /MD /GS /Gy /fp:precise /permissive- /Zc:wchar_t /Zc:forScope /Zc:inline /Fo"RELEASE\\" /Fd"RELEASE\VC142.PDB" /Gd /TP /analyze- /FC C:\USERS\SKSPA\DESKTOP\멀티코어프로그래밍\실습\MULTICORE_SKIPLIST\MULTICORE_LIST\MULTICORE_LIST\SKIPLIST.CPP
