c:\users\skspa\desktop\멀티코어프로그래밍\실습\multicore_queue\multicore_queue\release\vc142.pdb
c:\users\skspa\desktop\멀티코어프로그래밍\실습\multicore_queue\multicore_queue\release\cqueue.obj
c:\users\skspa\desktop\멀티코어프로그래밍\실습\multicore_queue\multicore_queue\release\lfqueue.obj
c:\users\skspa\desktop\멀티코어프로그래밍\실습\multicore_queue\multicore_queue\release\lfqueue2.obj
c:\users\skspa\desktop\멀티코어프로그래밍\실습\multicore_queue\multicore_queue\release\splfqueue.obj
c:\users\skspa\desktop\멀티코어프로그래밍\실습\multicore_queue\release\multicore_queue.exe
c:\users\skspa\desktop\멀티코어프로그래밍\실습\multicore_queue\release\multicore_queue.pdb
c:\users\skspa\desktop\멀티코어프로그래밍\실습\multicore_queue\release\multicore_queue.ipdb
c:\users\skspa\desktop\멀티코어프로그래밍\실습\multicore_queue\release\multicore_queue.iobj
c:\users\skspa\desktop\멀티코어프로그래밍\실습\multicore_queue\multicore_queue\release\vcpkg.applocal.log
c:\users\skspa\desktop\멀티코어프로그래밍\실습\multicore_queue\multicore_queue\release\queue.obj
c:\users\skspa\desktop\멀티코어프로그래밍\실습\multicore_queue\multicore_queue\release\vc141.pdb
c:\users\skspa\desktop\멀티코어프로그래밍\실습\multicore_queue\multicore_queue\release\multicore_queue.tlog\cl.command.1.tlog
c:\users\skspa\desktop\멀티코어프로그래밍\실습\multicore_queue\multicore_queue\release\multicore_queue.tlog\cl.read.1.tlog
c:\users\skspa\desktop\멀티코어프로그래밍\실습\multicore_queue\multicore_queue\release\multicore_queue.tlog\cl.write.1.tlog
c:\users\skspa\desktop\멀티코어프로그래밍\실습\multicore_queue\multicore_queue\release\multicore_queue.tlog\link.command.1.tlog
c:\users\skspa\desktop\멀티코어프로그래밍\실습\multicore_queue\multicore_queue\release\multicore_queue.tlog\link.read.1.tlog
c:\users\skspa\desktop\멀티코어프로그래밍\실습\multicore_queue\multicore_queue\release\multicore_queue.tlog\link.write.1.tlog
c:\users\skspa\desktop\멀티코어프로그래밍\실습\multicore_queue\multicore_queue\release\multicore_queue.tlog\multicore_queue.write.1u.tlog
